{
  "presets": [
    "@babel/preset-typescript"
  ],
  "plugins": [
    "@babel/plugin-proposal-export-namespace-from",
    "@babel/plugin-transform-modules-commonjs",
    "@babel/plugin-syntax-class-properties"
  ],
  "overrides": [{
    "include": [ "src/main/cordra/", "src/test/cordra/" ],
    "retainLines": true,
    "presets": [
      "@babel/preset-env"
    ],
    "plugins": [
      "@babel/plugin-proposal-class-properties"
    ]
  }]
}
